{
  "shell_port": 49435,
  "iopub_port": 33275,
  "stdin_port": 39521,
  "control_port": 47059,
  "hb_port": 37663,
  "ip": "127.0.0.1",
  "key": "20cb6398-85fe1f623c75def922e9f1a5",
  "transport": "tcp",
  "signature_scheme": "hmac-sha256",
  "kernel_name": ""
}